Laboratorio/L5/simulation/qsim/L5.msim.vcd
$comment
	File created using the following command:
		vcd file L5.msim.vcd -direction
$end
$date
	Thu Apr 08 20:33:16 2021
$end
$version
	ModelSim Version 2020.1
$end
$timescale
	1ps
$end

$scope module l5_vhd_vec_tst $end
$var wire 1 ! Cin $end
$var wire 1 " Overflow $end
$var wire 1 # S [3] $end
$var wire 1 $ S [2] $end
$var wire 1 % S [1] $end
$var wire 1 & S [0] $end
$var wire 1 ' X [3] $end
$var wire 1 ( X [2] $end
$var wire 1 ) X [1] $end
$var wire 1 * X [0] $end
$var wire 1 + Y [3] $end
$var wire 1 , Y [2] $end
$var wire 1 - Y [1] $end
$var wire 1 . Y [0] $end

$scope module i1 $end
$var wire 1 / gnd $end
$var wire 1 0 vcc $end
$var wire 1 1 unknown $end
$var wire 1 2 devoe $end
$var wire 1 3 devclrn $end
$var wire 1 4 devpor $end
$var wire 1 5 ww_devoe $end
$var wire 1 6 ww_devclrn $end
$var wire 1 7 ww_devpor $end
$var wire 1 8 ww_Cin $end
$var wire 1 9 ww_X [3] $end
$var wire 1 : ww_X [2] $end
$var wire 1 ; ww_X [1] $end
$var wire 1 < ww_X [0] $end
$var wire 1 = ww_Y [3] $end
$var wire 1 > ww_Y [2] $end
$var wire 1 ? ww_Y [1] $end
$var wire 1 @ ww_Y [0] $end
$var wire 1 A ww_S [3] $end
$var wire 1 B ww_S [2] $end
$var wire 1 C ww_S [1] $end
$var wire 1 D ww_S [0] $end
$var wire 1 E ww_Overflow $end
$var wire 1 F \S[0]~output_o\ $end
$var wire 1 G \S[1]~output_o\ $end
$var wire 1 H \S[2]~output_o\ $end
$var wire 1 I \S[3]~output_o\ $end
$var wire 1 J \Overflow~output_o\ $end
$var wire 1 K \Y[0]~input_o\ $end
$var wire 1 L \X[0]~input_o\ $end
$var wire 1 M \Cin~input_o\ $end
$var wire 1 N \Add0~1_cout\ $end
$var wire 1 O \Add0~2_combout\ $end
$var wire 1 P \Y[1]~input_o\ $end
$var wire 1 Q \X[1]~input_o\ $end
$var wire 1 R \Add0~3\ $end
$var wire 1 S \Add0~4_combout\ $end
$var wire 1 T \Y[2]~input_o\ $end
$var wire 1 U \X[2]~input_o\ $end
$var wire 1 V \Add0~5\ $end
$var wire 1 W \Add0~6_combout\ $end
$var wire 1 X \Y[3]~input_o\ $end
$var wire 1 Y \X[3]~input_o\ $end
$var wire 1 Z \Add0~7\ $end
$var wire 1 [ \Add0~8_combout\ $end
$var wire 1 \ \Add0~9\ $end
$var wire 1 ] \Add0~10_combout\ $end
$var wire 1 ^ \Overflow~0_combout\ $end
$upscope $end
$upscope $end
$enddefinitions $end
#0
$dumpvars
1!
1"
0/
10
x1
12
13
14
15
16
17
18
1E
0F
0G
1H
1I
1J
1K
0L
1M
1N
0O
0P
1Q
0R
0S
1T
1U
1V
1W
0X
0Y
0Z
1[
0\
0]
1^
0'
1(
1)
0*
0+
1,
0-
1.
09
1:
1;
0<
0=
1>
0?
1@
1A
1B
0C
0D
1#
1$
0%
0&
$end
#10000
1*
1+
1-
0.
1<
0@
1?
1=
1X
1P
0K
1L
1S
0[
1\
0^
1]
1^
0^
0J
0I
1G
0E
0A
1C
1J
0"
1%
0#
1E
0J
1"
0E
0"
#20000
0+
0-
0(
0)
0?
0=
0;
0:
0U
0Q
0X
0P
1[
0\
1^
0V
0W
1W
1Z
0]
0^
1^
0[
0H
1J
1I
0^
0B
1E
1A
0J
1H
0$
1#
1"
0E
1B
0I
1J
0"
1$
0A
1E
0J
0#
1"
0E
0"
#30000
1+
1-
1(
0*
1.
0!
1@
1?
1=
0<
1:
08
0M
1U
0L
1X
1P
1K
0S
1V
1[
1^
0W
0Z
0N
1O
1R
0[
1\
0^
1W
1]
1^
1S
0V
0H
1J
1I
0G
0W
0^
0B
1E
1A
0C
1H
0J
0I
1F
0%
0$
1#
1"
1B
0E
0A
1D
1G
1J
1&
1$
0#
0"
1C
1E
0J
0H
1%
1"
0E
0B
0"
0$
#40000
1*
0.
1<
0@
0K
1L
#50000
0*
1.
0+
1!
1'
0,
0<
19
1@
0>
0=
18
1M
0X
0T
1K
1Y
0L
1W
1Z
1N
0O
0R
1[
0\
0]
1^
0S
1V
1H
0W
0Z
0^
1B
1I
0F
1$
0[
1\
1A
0D
0G
1J
0&
1#
1]
1^
0C
1E
0J
0H
0%
1"
0^
0E
0B
0I
0"
0$
0A
1J
0#
1E
0J
1"
0E
0"
#60000
0.
1+
1,
0-
0(
1)
0@
0?
1>
1=
1;
0:
0U
1Q
1X
1T
0P
0K
1O
1R
1[
1^
0^
1S
0V
1W
1Z
1J
1I
1F
0[
1E
1A
1D
1G
0J
1"
1&
1#
1^
1C
0E
1H
1%
0"
1B
0I
1$
0A
1J
0#
1E
1"
#70000
0,
1-
0)
1*
0!
1?
0>
1<
0;
08
0M
0Q
1L
0T
1P
0W
0O
0R
0N
1O
1R
0S
1V
1W
1S
0V
0F
0H
0W
0D
0B
0G
1F
0&
0$
0C
1D
1G
1H
1&
0%
1C
1B
0H
1%
1$
0B
0$
#80000
1)
1!
1.
0+
0'
1;
09
18
1@
0=
0X
1K
1M
0Y
1Q
0S
1V
1N
0O
0R
0\
0]
1S
1O
1W
0^
0F
0G
0D
0C
1H
1F
1G
0&
0%
1B
1D
1C
0J
1&
1%
1$
0E
0"
#90000
0!
0.
1+
1,
0-
0*
08
0@
0?
1>
1=
0<
0L
1X
1T
0P
0K
0M
0N
0S
0W
0Z
1[
1^
1R
1S
0V
0^
0[
1\
0O
1]
1^
1W
1Z
1J
1I
0H
0G
1[
0\
0^
1E
1A
0B
0C
0F
0I
0J
1G
1"
0%
0$
1#
0]
1^
0D
0A
0E
1C
1H
1J
0&
1%
0#
0"
0^
1B
1E
0J
1I
1$
1"
0E
1A
1J
0"
1#
1E
0J
1"
0E
0"
#100000
1!
1.
0+
1*
18
1@
0=
1<
1L
0X
1K
1M
1N
0[
1^
0R
0S
1V
0^
1O
0W
0Z
1J
0I
1[
1E
0A
1F
0J
0G
1"
0#
1^
1D
0E
0C
0H
1&
0%
0"
0B
1I
0$
1A
1J
1#
1E
1"
#110000
0!
0,
1-
0)
1'
08
1?
0>
0;
19
1Y
0Q
0T
1P
0M
0N
1W
1Z
0[
1\
0^
1]
1^
1[
0\
0O
0]
0J
0I
1H
0^
0E
0A
1B
0F
1I
1J
0"
1$
0#
0D
1A
1E
0&
1#
1"
0J
0E
0"
#120000
1,
0-
0'
0.
1+
0*
1(
0@
0?
1>
1=
0<
1:
09
0Y
1U
0L
1X
1T
0P
0K
1S
0V
1R
0Z
0[
1\
0S
0W
1]
1^
1G
0^
1C
0H
0G
0I
1%
0B
0C
0A
1J
0%
0$
0#
1E
0J
1"
0E
0"
#130000
0,
1'
1.
1*
1!
1)
1@
0>
1<
1;
19
18
1M
1Y
1Q
1L
0T
1K
1W
1Z
0R
1S
1[
1^
1N
1O
0^
0S
1V
0[
1^
0W
0Z
1J
1I
1G
1H
1[
1E
1A
1C
1B
0I
0G
0J
1F
1"
1%
1$
1#
0^
0A
0C
0E
1D
0H
1J
1&
0%
0#
0"
0B
1E
1I
0$
1"
1A
0J
1#
0E
0"
#140000
1,
0)
1-
1?
1>
0;
0Q
1T
1P
1W
1H
1B
1$
#150000
0,
0+
0>
0=
0X
0T
0W
0[
1^
0^
1J
0I
0H
1E
0A
0B
0J
1"
0$
0#
0E
0"
#160000
0-
0(
0?
0:
0U
0P
1S
0V
1W
1Z
1[
0\
0W
0]
1^
1H
1G
0^
1B
1C
0H
1I
1%
1$
0B
1A
1J
0$
1#
1E
0J
1"
0E
0"
#170000
1+
1)
0'
0!
1=
1;
09
08
0M
0Y
1Q
1X
0S
1V
0N
0O
1W
0G
0C
1H
0F
0%
1B
0D
0&
1$
#180000
0)
1'
1-
1(
0.
0*
0<
0;
1:
19
0@
1?
1P
0K
1Y
1U
0Q
0L
0W
0Z
0[
1\
1^
1R
1S
0V
1]
0^
1[
1W
1Z
1J
0I
0H
0[
1E
0A
0B
1I
0J
1G
1"
0$
0#
1^
1A
0E
1C
1H
1%
1#
0"
1B
0I
1$
0A
1J
0#
1E
1"
#190000
0'
0-
0(
1.
0+
1!
1,
0:
09
1@
0?
1>
0=
18
1M
0X
1T
0P
1K
0Y
0U
1O
0S
0\
1N
0O
0R
0]
0^
1S
0G
1F
0C
1D
0F
1&
0%
0D
1G
0J
0&
1C
0E
1%
0"
#200000
1'
1-
0.
0,
1*
1<
19
0@
1?
0>
0T
1P
0K
1Y
1L
1[
1^
0S
1V
0W
1W
0^
0H
0G
1J
1I
0B
0C
1E
1A
0J
1H
0%
0$
1#
1"
0E
1B
0"
1$
#210000
0'
0-
1.
1,
0*
1+
1)
0<
1;
09
1@
0?
1>
1=
1X
1T
0P
1K
0Y
1Q
0L
0W
0Z
0[
1\
1]
1^
0H
0^
0B
0I
0$
0A
1J
0#
1E
0J
1"
0E
0"
#220000
0+
1(
0=
1:
1U
0X
1[
0\
1^
1W
0]
0^
1^
1H
1J
1I
1B
1E
1A
0J
1$
1#
1"
0E
1J
0"
1E
1"
#230000
1+
0(
0.
1*
0)
0!
0@
1=
1<
0;
0:
08
0M
0U
0Q
1L
1X
0K
0[
1\
0^
1S
0V
0W
0N
1O
1R
1W
1Z
1]
1^
0^
1[
0\
0S
0H
1G
0J
0I
0]
1^
0B
1C
0E
0A
1J
1H
1F
1%
0$
0#
0"
0^
1E
1B
1D
0G
1I
0J
1"
1&
1$
0C
1A
0E
1J
0%
1#
0"
1E
0J
1"
0E
0"
#240000
0+
1.
0*
1)
1!
1@
0=
0<
1;
18
1M
1Q
0L
0X
1K
0[
1^
1S
1N
0O
0R
0^
0S
1V
1G
1J
0I
0W
0Z
1C
1E
0A
0J
0F
1%
0#
1"
1[
0E
0D
0G
0"
0&
1^
0C
0H
0%
0B
1I
0$
1A
1J
1#
1E
1"
#250000
0.
0!
1(
1'
1-
0,
0@
1?
0>
08
1:
19
1Y
1U
0M
0T
1P
0K
1O
1R
1S
0N
0[
1\
0^
1]
1^
0O
0S
0^
0J
0I
1G
1F
0E
0A
1C
1D
0G
0F
1J
0"
1&
1%
0#
0C
0D
1E
0J
0&
0%
1"
0E
0"
#260000
0(
1,
0)
0;
0:
1>
1T
0U
0Q
1S
0V
1W
1Z
1[
0\
1G
0]
1^
1C
1H
1%
0^
1B
1I
1$
1A
1J
1#
1E
0J
1"
0E
0"
#270000
1(
1!
0'
1*
1<
1:
09
18
1M
0Y
1U
1L
1O
0W
0Z
0[
1^
1N
0O
0R
0^
1[
1^
0S
1V
1J
0I
0H
1F
1W
1E
0A
0B
1D
1I
0J
0F
1"
1&
0$
0#
1A
0E
0D
0G
1J
0&
1#
0"
0C
1E
1H
0%
1"
1B
1$
#280000
0!
1'
0*
0,
1.
08
0<
19
1@
0>
0T
1K
1Y
0L
0M
0N
0[
1\
0^
0W
1]
1^
1O
1R
1S
0V
0^
0H
0J
0I
1W
1Z
0B
0E
0A
1F
1J
0$
0#
0"
1[
0\
1D
1E
0J
1G
1&
1"
0]
1^
0E
1C
1H
0"
1%
0^
1B
1I
1$
1A
1J
1#
1E
0J
1"
0E
0"
#290000
1!
1,
0(
0-
18
0?
1>
0:
0U
1T
0P
1M
1N
0S
0O
0R
1S
0G
0C
0F
0%
0D
1G
0&
1C
1%
#300000
0!
0,
1-
1*
08
1?
0>
1<
1L
0T
1P
0M
0N
0S
1V
0W
1O
1W
0O
1F
0H
0G
1D
0B
0C
0F
1H
1&
0%
0$
0D
1B
0&
1$
#310000
1!
1,
0-
1(
1)
1+
18
0?
1>
1=
1;
1:
1U
1Q
1X
1T
0P
1M
1N
0[
1\
1^
0Z
1[
1]
0^
1O
1J
0I
1E
0A
1F
0J
1I
1"
0#
1D
0E
1A
1&
1#
0"
