Laboratorio/L2/simulation/qsim/f_E3.msim.vcd
$comment
	File created using the following command:
		vcd file f_E3.msim.vcd -direction
$end
$date
	Sat Feb 20 03:05:22 2021
$end
$version
	ModelSim Version 2020.1
$end
$timescale
	1ps
$end

$scope module f_dni_vhd_vec_tst $end
$var wire 1 ! A $end
$var wire 1 " B $end
$var wire 1 # C $end
$var wire 1 $ f $end

$scope module i1 $end
$var wire 1 % gnd $end
$var wire 1 & vcc $end
$var wire 1 ' unknown $end
$var wire 1 ( devoe $end
$var wire 1 ) devclrn $end
$var wire 1 * devpor $end
$var wire 1 + ww_devoe $end
$var wire 1 , ww_devclrn $end
$var wire 1 - ww_devpor $end
$var wire 1 . ww_A $end
$var wire 1 / ww_B $end
$var wire 1 0 ww_C $end
$var wire 1 1 ww_f $end
$var wire 1 2 \f~output_o\ $end
$var wire 1 3 \A~input_o\ $end
$var wire 1 4 \C~input_o\ $end
$var wire 1 5 \B~input_o\ $end
$var wire 1 6 \f~0_combout\ $end
$upscope $end
$upscope $end
$enddefinitions $end
#0
$dumpvars
0!
0"
0#
1$
0%
1&
x'
1(
1)
1*
1+
1,
1-
0.
0/
00
11
12
03
04
05
16
$end
#10000
1#
10
14
#20000
0#
1"
00
1/
15
04
06
02
01
0$
#30000
1#
10
14
#40000
0#
0"
1!
00
0/
1.
13
05
04
#50000
1#
10
14
16
12
11
1$
#60000
0#
1"
00
1/
15
04
#70000
1#
10
14
#80000
0#
0"
0!
00
0/
0.
03
05
04
#90000
1#
10
14
