Ejercicios y tareas/T6/simulation/qsim/T6.msim.vcd
$comment
	File created using the following command:
		vcd file T6.msim.vcd -direction
$end
$date
	Thu Apr 01 00:49:08 2021
$end
$version
	ModelSim Version 2020.1
$end
$timescale
	1ps
$end

$scope module l6_vhd_vec_tst $end
$var wire 1 ! E $end
$var wire 1 " F $end
$var wire 1 # S [2] $end
$var wire 1 $ S [1] $end
$var wire 1 % S [0] $end

$scope module i1 $end
$var wire 1 & gnd $end
$var wire 1 ' vcc $end
$var wire 1 ( unknown $end
$var wire 1 ) devoe $end
$var wire 1 * devclrn $end
$var wire 1 + devpor $end
$var wire 1 , ww_devoe $end
$var wire 1 - ww_devclrn $end
$var wire 1 . ww_devpor $end
$var wire 1 / ww_S [2] $end
$var wire 1 0 ww_S [1] $end
$var wire 1 1 ww_S [0] $end
$var wire 1 2 ww_E $end
$var wire 1 3 ww_F $end
$var wire 1 4 \F~output_o\ $end
$var wire 1 5 \E~input_o\ $end
$var wire 1 6 \S[2]~input_o\ $end
$var wire 1 7 \S[0]~input_o\ $end
$var wire 1 8 \S[1]~input_o\ $end
$var wire 1 9 \MUX|Z~0_combout\ $end
$upscope $end
$upscope $end
$enddefinitions $end
#0
$dumpvars
1!
0"
0&
1'
x(
1)
1*
1+
1,
1-
1.
12
03
04
15
06
17
18
09
0#
1$
1%
0/
10
11
$end
#5000
0$
0%
01
00
08
07
19
14
13
1"
#10000
1%
1#
11
1/
16
17
#20000
0#
1$
0!
10
0/
02
05
06
18
09
04
03
0"
#30000
0$
00
08
#35000
1#
0%
01
1/
16
07
#40000
0#
1$
1!
10
0/
12
15
06
18
#45000
1#
1/
16
19
14
13
1"
#50000
0#
0!
1%
11
0/
02
05
06
17
09
04
03
0"
#55000
1#
0%
0$
01
00
1/
16
08
07
#60000
0#
1$
1!
10
0/
12
15
06
18
#65000
1#
0$
00
1/
16
08
#70000
0#
0!
1%
11
0/
02
05
06
17
