Laboratorio/L8/simulation/qsim/L8.msim.vcd
$comment
	File created using the following command:
		vcd file L8.msim.vcd -direction
$end
$date
	Mon Apr 26 21:34:21 2021
$end
$version
	ModelSim Version 2020.1
$end
$timescale
	1ps
$end

$scope module l8_vhd_vec_tst $end
$var wire 1 ! Clock $end
$var wire 1 " E $end
$var wire 1 # resetn $end
$var wire 1 $ z [0] $end
$var wire 1 % z [1] $end
$var wire 1 & z [2] $end
$var wire 1 ' z [3] $end

$scope module i1 $end
$var wire 1 ( gnd $end
$var wire 1 ) vcc $end
$var wire 1 * unknown $end
$var wire 1 + devoe $end
$var wire 1 , devclrn $end
$var wire 1 - devpor $end
$var wire 1 . ww_devoe $end
$var wire 1 / ww_devclrn $end
$var wire 1 0 ww_devpor $end
$var wire 1 1 ww_Clock $end
$var wire 1 2 ww_resetn $end
$var wire 1 3 ww_E $end
$var wire 1 4 ww_z [0] $end
$var wire 1 5 ww_z [1] $end
$var wire 1 6 ww_z [2] $end
$var wire 1 7 ww_z [3] $end
$var wire 1 8 \z[3]~output_o\ $end
$var wire 1 9 \z[2]~output_o\ $end
$var wire 1 : \z[1]~output_o\ $end
$var wire 1 ; \z[0]~output_o\ $end
$var wire 1 < \Clock~input_o\ $end
$var wire 1 = \resetn~input_o\ $end
$var wire 1 > \E~input_o\ $end
$var wire 1 ? \State.st5~q\ $end
$var wire 1 @ \State.st6~q\ $end
$var wire 1 A \State.st7~q\ $end
$var wire 1 B \State.st8~q\ $end
$var wire 1 C \State.st1~0_combout\ $end
$var wire 1 D \State.st1~q\ $end
$var wire 1 E \State.st2~0_combout\ $end
$var wire 1 F \State.st2~q\ $end
$var wire 1 G \State.st3~q\ $end
$var wire 1 H \State.st4~q\ $end
$var wire 1 I \WideOr2~0_combout\ $end
$var wire 1 J \WideOr1~combout\ $end
$var wire 1 K \WideOr0~0_combout\ $end
$var wire 1 L \ALT_INV_WideOr1~combout\ $end
$var wire 1 M \ALT_INV_WideOr0~0_combout\ $end
$upscope $end
$upscope $end
$enddefinitions $end
#0
$dumpvars
0!
1"
0#
0(
1)
x*
1+
1,
1-
1.
1/
10
01
02
13
08
09
0:
0;
0<
0=
1>
0?
0@
0A
0B
1C
0D
1E
0F
0G
0H
0I
1J
1K
0L
0M
04
05
06
07
0$
0%
0&
0'
$end
#9000
1#
12
1=
#10000
1!
11
1<
1D
1F
0K
0E
1M
1:
15
1%
#20000
0!
01
0<
#30000
1!
11
1<
0F
1G
0J
1K
0M
1L
19
0:
16
05
1&
0%
#40000
0!
01
0<
#50000
1!
11
1<
0G
1H
1I
18
17
1'
#60000
0!
01
0<
#70000
1!
11
1<
1?
0H
1J
0K
1M
0L
09
1:
06
15
0&
1%
#80000
0!
01
0<
#90000
1!
11
1<
0?
1@
0J
1K
0M
1L
19
0:
16
05
1&
0%
#100000
0!
01
0<
#110000
1!
11
1<
0@
1A
1J
0K
0I
1M
0L
08
09
1:
07
06
15
0'
0&
1%
#120000
0!
01
0<
#130000
1!
11
1<
0A
1B
0C
0J
1K
0M
1L
19
0:
16
05
1&
0%
#140000
0!
01
0<
#150000
1!
11
1<
0B
0D
1E
1J
1C
0L
09
06
0&
#160000
0!
01
0<
#170000
1!
11
1<
1D
1F
0K
0E
1M
1:
15
1%
#180000
0!
0#
01
02
0=
0<
0D
0F
1K
1E
0M
0:
05
0%
#189000
1#
12
1=
#190000
1!
0"
11
03
0>
1<
#200000
0!
01
0<
#210000
1!
11
1<
#212000
1"
13
1>
#220000
0!
01
0<
#230000
1!
11
1<
1D
1F
0K
0E
1M
1:
15
1%
#240000
0!
01
0<
#250000
1!
11
1<
0F
1G
0J
1K
0M
1L
19
0:
16
05
1&
0%
#260000
0!
01
0<
#270000
1!
11
1<
0G
1H
1I
18
17
1'
