Ejercicios y tareas/T5/simulation/qsim/T5.msim.vcd
$comment
	File created using the following command:
		vcd file T5.msim.vcd -direction
$end
$date
	Thu Apr 08 20:27:19 2021
$end
$version
	ModelSim Version 2020.1
$end
$timescale
	1ps
$end

$scope module f5_vhd_vec_tst $end
$var wire 1 ! S [3] $end
$var wire 1 " S [2] $end
$var wire 1 # S [1] $end
$var wire 1 $ S [0] $end
$var wire 1 % X [3] $end
$var wire 1 & X [2] $end
$var wire 1 ' X [1] $end
$var wire 1 ( X [0] $end

$scope module i1 $end
$var wire 1 ) gnd $end
$var wire 1 * vcc $end
$var wire 1 + unknown $end
$var wire 1 , devoe $end
$var wire 1 - devclrn $end
$var wire 1 . devpor $end
$var wire 1 / ww_devoe $end
$var wire 1 0 ww_devclrn $end
$var wire 1 1 ww_devpor $end
$var wire 1 2 ww_X [3] $end
$var wire 1 3 ww_X [2] $end
$var wire 1 4 ww_X [1] $end
$var wire 1 5 ww_X [0] $end
$var wire 1 6 ww_S [3] $end
$var wire 1 7 ww_S [2] $end
$var wire 1 8 ww_S [1] $end
$var wire 1 9 ww_S [0] $end
$var wire 1 : \S[0]~output_o\ $end
$var wire 1 ; \S[1]~output_o\ $end
$var wire 1 < \S[2]~output_o\ $end
$var wire 1 = \S[3]~output_o\ $end
$var wire 1 > \X[0]~input_o\ $end
$var wire 1 ? \X[1]~input_o\ $end
$var wire 1 @ \Add0~0_combout\ $end
$var wire 1 A \X[2]~input_o\ $end
$var wire 1 B \Add0~1_combout\ $end
$var wire 1 C \X[3]~input_o\ $end
$var wire 1 D \Add0~2_combout\ $end
$upscope $end
$upscope $end
$enddefinitions $end
#0
$dumpvars
0)
1*
x+
1,
1-
1.
1/
10
11
0:
0;
0<
0=
0>
0?
0@
0A
0B
0C
0D
0%
0&
0'
0(
0!
0"
0#
0$
02
03
04
05
06
07
08
09
$end
#10000
1(
15
1>
1@
1B
1D
1:
19
1=
1<
1;
1$
16
17
18
1#
1"
1!
#20000
0(
1'
05
14
1?
0>
0:
09
0$
#30000
1(
15
1>
0@
1:
19
0;
1$
08
0#
#40000
0(
0'
1&
05
04
13
1A
0?
0>
0:
09
0$
#50000
1(
15
1>
1@
0B
1:
19
0<
1;
1$
07
18
1#
0"
#60000
0(
1'
05
14
1?
0>
0:
09
0$
#70000
1(
15
1>
0@
1:
19
0;
1$
08
0#
#80000
0(
0'
0&
1%
05
04
03
12
1C
0A
0?
0>
0:
09
0$
#90000
1(
15
1>
1@
1B
0D
1:
19
0=
1<
1;
1$
06
17
18
1#
1"
0!
#100000
0(
1'
05
14
1?
0>
0:
09
0$
#110000
1(
15
1>
0@
1:
19
0;
1$
08
0#
#120000
0(
0'
1&
05
04
13
1A
0?
0>
0:
09
0$
#130000
1(
15
1>
1@
0B
1:
19
0<
1;
1$
07
18
1#
0"
#140000
0(
1'
05
14
1?
0>
0:
09
0$
#150000
1(
15
1>
0@
1:
19
0;
1$
08
0#
